^C:\USERS\ADMIN\DESKTOP\SNOWFLAKES\GRAPHICLEV\GRAPHICLEV\DEBUG\SOURCE.OBJ
C:\USERS\ADMIN\DESKTOP\SNOWFLAKES\GRAPHICLEV\DEBUG\GRAPHICLEV.EXE
C:\USERS\ADMIN\DESKTOP\SNOWFLAKES\GRAPHICLEV\DEBUG\GRAPHICLEV.ILK
C:\USERS\ADMIN\DESKTOP\SNOWFLAKES\GRAPHICLEV\DEBUG\GRAPHICLEV.PDB
